{"frames": {

"cs_female.png":
{
	"frame": {"x":2,"y":2,"w":179,"h":336},
	"rotated": false,
	"trimmed": false,
	"spriteSourceSize": {"x":0,"y":0,"w":179,"h":336},
	"sourceSize": {"w":179,"h":336}
},
"cs_male.png":
{
	"frame": {"x":183,"y":2,"w":179,"h":323},
	"rotated": false,
	"trimmed": false,
	"spriteSourceSize": {"x":0,"y":0,"w":179,"h":323},
	"sourceSize": {"w":179,"h":323}
},
"cs_title.png":
{
	"frame": {"x":2,"y":340,"w":282,"h":25},
	"rotated": false,
	"trimmed": false,
	"spriteSourceSize": {"x":0,"y":0,"w":282,"h":25},
	"sourceSize": {"w":282,"h":25}
}},
"meta": {
	"app": "http://www.codeandweb.com/texturepacker ",
	"version": "1.0",
	"image": "character_select.png",
	"format": "RGBA8888",
	"size": {"w":364,"h":367},
	"scale": "1",
	"smartupdate": "$TexturePacker:SmartUpdate:20503a66540789eb75f6e315f4ed4c26:56c3abe3b35a8115b04c0f4c0fa996fd:665e3fe4bd6bc5fc7d9aa037793589c7$"
}
}
