{"frames": {

"idle.png":
{
	"frame": {"x":744,"y":2,"w":104,"h":170},
	"rotated": false,
	"trimmed": false,
	"spriteSourceSize": {"x":0,"y":0,"w":104,"h":170},
	"sourceSize": {"w":104,"h":170}
},
"jump_1.png":
{
	"frame": {"x":638,"y":2,"w":104,"h":170},
	"rotated": false,
	"trimmed": false,
	"spriteSourceSize": {"x":0,"y":0,"w":104,"h":170},
	"sourceSize": {"w":104,"h":170}
},
"jump_2.png":
{
	"frame": {"x":532,"y":2,"w":104,"h":170},
	"rotated": false,
	"trimmed": false,
	"spriteSourceSize": {"x":0,"y":0,"w":104,"h":170},
	"sourceSize": {"w":104,"h":170}
},
"jump_3.png":
{
	"frame": {"x":426,"y":2,"w":104,"h":170},
	"rotated": false,
	"trimmed": false,
	"spriteSourceSize": {"x":0,"y":0,"w":104,"h":170},
	"sourceSize": {"w":104,"h":170}
},
"jump_4.png":
{
	"frame": {"x":320,"y":2,"w":104,"h":170},
	"rotated": false,
	"trimmed": false,
	"spriteSourceSize": {"x":0,"y":0,"w":104,"h":170},
	"sourceSize": {"w":104,"h":170}
},
"jump_5.png":
{
	"frame": {"x":214,"y":2,"w":104,"h":170},
	"rotated": false,
	"trimmed": false,
	"spriteSourceSize": {"x":0,"y":0,"w":104,"h":170},
	"sourceSize": {"w":104,"h":170}
},
"jump_6.png":
{
	"frame": {"x":108,"y":2,"w":104,"h":170},
	"rotated": false,
	"trimmed": false,
	"spriteSourceSize": {"x":0,"y":0,"w":104,"h":170},
	"sourceSize": {"w":104,"h":170}
},
"jump_7.png":
{
	"frame": {"x":2,"y":2,"w":104,"h":170},
	"rotated": false,
	"trimmed": false,
	"spriteSourceSize": {"x":0,"y":0,"w":104,"h":170},
	"sourceSize": {"w":104,"h":170}
}},
"meta": {
	"app": "http://www.codeandweb.com/texturepacker ",
	"version": "1.0",
	"image": "fa.png",
	"format": "RGBA8888",
	"size": {"w":850,"h":174},
	"scale": "0.6",
	"smartupdate": "$TexturePacker:SmartUpdate:63b24eb0e0eff9ea0274efbf2a1f5166:4e2762e8b0daafd7f2be426e7f80cbef:f0c032755740dae439eacb3821979e60$"
}
}
