{"frames": {

"idle.png":
{
	"frame": {"x":105,"y":1,"w":56,"h":248},
	"rotated": false,
	"trimmed": true,
	"spriteSourceSize": {"x":51,"y":3,"w":56,"h":248},
	"sourceSize": {"w":158,"h":254},
	"pivot": {"x":0.5,"y":0.5}
},
"jump_1.png":
{
	"frame": {"x":1,"y":251,"w":96,"h":241},
	"rotated": false,
	"trimmed": true,
	"spriteSourceSize": {"x":37,"y":17,"w":96,"h":241},
	"sourceSize": {"w":158,"h":258},
	"pivot": {"x":0.5,"y":0.5}
},
"jump_2.png":
{
	"frame": {"x":163,"y":1,"w":70,"h":246},
	"rotated": false,
	"trimmed": true,
	"spriteSourceSize": {"x":45,"y":8,"w":70,"h":246},
	"sourceSize": {"w":158,"h":258},
	"pivot": {"x":0.5,"y":0.5}
},
"jump_3.png":
{
	"frame": {"x":99,"y":251,"w":70,"h":241},
	"rotated": false,
	"trimmed": true,
	"spriteSourceSize": {"x":40,"y":11,"w":70,"h":241},
	"sourceSize": {"w":158,"h":258},
	"pivot": {"x":0.5,"y":0.5}
},
"jump_4.png":
{
	"frame": {"x":605,"y":243,"w":69,"h":240},
	"rotated": false,
	"trimmed": true,
	"spriteSourceSize": {"x":40,"y":12,"w":69,"h":240},
	"sourceSize": {"w":158,"h":258},
	"pivot": {"x":0.5,"y":0.5}
},
"jump_5.png":
{
	"frame": {"x":601,"y":1,"w":70,"h":240},
	"rotated": false,
	"trimmed": true,
	"spriteSourceSize": {"x":39,"y":12,"w":70,"h":240},
	"sourceSize": {"w":158,"h":258},
	"pivot": {"x":0.5,"y":0.5}
},
"jump_6.png":
{
	"frame": {"x":676,"y":242,"w":70,"h":239},
	"rotated": false,
	"trimmed": true,
	"spriteSourceSize": {"x":39,"y":12,"w":70,"h":239},
	"sourceSize": {"w":158,"h":258},
	"pivot": {"x":0.5,"y":0.5}
},
"jump_7.png":
{
	"frame": {"x":1111,"y":1,"w":70,"h":238},
	"rotated": false,
	"trimmed": true,
	"spriteSourceSize": {"x":38,"y":13,"w":70,"h":238},
	"sourceSize": {"w":158,"h":258},
	"pivot": {"x":0.5,"y":0.5}
},
"jump_8.png":
{
	"frame": {"x":1183,"y":1,"w":70,"h":238},
	"rotated": false,
	"trimmed": true,
	"spriteSourceSize": {"x":38,"y":13,"w":70,"h":238},
	"sourceSize": {"w":158,"h":258},
	"pivot": {"x":0.5,"y":0.5}
},
"jump_9.png":
{
	"frame": {"x":1330,"y":240,"w":70,"h":237},
	"rotated": false,
	"trimmed": true,
	"spriteSourceSize": {"x":38,"y":14,"w":70,"h":237},
	"sourceSize": {"w":158,"h":258},
	"pivot": {"x":0.5,"y":0.5}
},
"jump_10.png":
{
	"frame": {"x":1186,"y":241,"w":70,"h":237},
	"rotated": false,
	"trimmed": true,
	"spriteSourceSize": {"x":38,"y":14,"w":70,"h":237},
	"sourceSize": {"w":158,"h":258},
	"pivot": {"x":0.5,"y":0.5}
},
"jump_11.png":
{
	"frame": {"x":1255,"y":1,"w":70,"h":237},
	"rotated": false,
	"trimmed": true,
	"spriteSourceSize": {"x":37,"y":14,"w":70,"h":237},
	"sourceSize": {"w":158,"h":258},
	"pivot": {"x":0.5,"y":0.5}
},
"jump_12.png":
{
	"frame": {"x":1327,"y":1,"w":70,"h":237},
	"rotated": false,
	"trimmed": true,
	"spriteSourceSize": {"x":37,"y":14,"w":70,"h":237},
	"sourceSize": {"w":158,"h":258},
	"pivot": {"x":0.5,"y":0.5}
},
"jump_13.png":
{
	"frame": {"x":1258,"y":240,"w":70,"h":237},
	"rotated": false,
	"trimmed": true,
	"spriteSourceSize": {"x":37,"y":14,"w":70,"h":237},
	"sourceSize": {"w":158,"h":258},
	"pivot": {"x":0.5,"y":0.5}
},
"jump_14.png":
{
	"frame": {"x":235,"y":1,"w":69,"h":241},
	"rotated": false,
	"trimmed": true,
	"spriteSourceSize": {"x":43,"y":10,"w":69,"h":241},
	"sourceSize": {"w":158,"h":258},
	"pivot": {"x":0.5,"y":0.5}
},
"jump_15.png":
{
	"frame": {"x":1,"y":1,"w":102,"h":248},
	"rotated": false,
	"trimmed": true,
	"spriteSourceSize": {"x":28,"y":3,"w":102,"h":248},
	"sourceSize": {"w":158,"h":258},
	"pivot": {"x":0.5,"y":0.5}
},
"jump_16.png":
{
	"frame": {"x":171,"y":249,"w":137,"h":243},
	"rotated": false,
	"trimmed": true,
	"spriteSourceSize": {"x":11,"y":7,"w":137,"h":243},
	"sourceSize": {"w":158,"h":258},
	"pivot": {"x":0.5,"y":0.5}
},
"jump_17.png":
{
	"frame": {"x":306,"y":1,"w":146,"h":240},
	"rotated": false,
	"trimmed": true,
	"spriteSourceSize": {"x":7,"y":10,"w":146,"h":240},
	"sourceSize": {"w":158,"h":258},
	"pivot": {"x":0.5,"y":0.5}
},
"jump_18.png":
{
	"frame": {"x":310,"y":243,"w":146,"h":240},
	"rotated": false,
	"trimmed": true,
	"spriteSourceSize": {"x":7,"y":10,"w":146,"h":240},
	"sourceSize": {"w":158,"h":258},
	"pivot": {"x":0.5,"y":0.5}
},
"jump_19.png":
{
	"frame": {"x":454,"y":1,"w":145,"h":240},
	"rotated": false,
	"trimmed": true,
	"spriteSourceSize": {"x":8,"y":10,"w":145,"h":240},
	"sourceSize": {"w":158,"h":258},
	"pivot": {"x":0.5,"y":0.5}
},
"jump_20.png":
{
	"frame": {"x":458,"y":243,"w":145,"h":240},
	"rotated": false,
	"trimmed": true,
	"spriteSourceSize": {"x":8,"y":10,"w":145,"h":240},
	"sourceSize": {"w":158,"h":258},
	"pivot": {"x":0.5,"y":0.5}
},
"jump_21.png":
{
	"frame": {"x":673,"y":1,"w":144,"h":239},
	"rotated": false,
	"trimmed": true,
	"spriteSourceSize": {"x":9,"y":10,"w":144,"h":239},
	"sourceSize": {"w":158,"h":258},
	"pivot": {"x":0.5,"y":0.5}
},
"jump_22.png":
{
	"frame": {"x":748,"y":242,"w":144,"h":238},
	"rotated": false,
	"trimmed": true,
	"spriteSourceSize": {"x":9,"y":11,"w":144,"h":238},
	"sourceSize": {"w":158,"h":258},
	"pivot": {"x":0.5,"y":0.5}
},
"jump_23.png":
{
	"frame": {"x":819,"y":1,"w":144,"h":238},
	"rotated": false,
	"trimmed": true,
	"spriteSourceSize": {"x":9,"y":11,"w":144,"h":238},
	"sourceSize": {"w":158,"h":258},
	"pivot": {"x":0.5,"y":0.5}
},
"jump_24.png":
{
	"frame": {"x":894,"y":241,"w":144,"h":238},
	"rotated": false,
	"trimmed": true,
	"spriteSourceSize": {"x":9,"y":11,"w":144,"h":238},
	"sourceSize": {"w":158,"h":258},
	"pivot": {"x":0.5,"y":0.5}
},
"jump_25.png":
{
	"frame": {"x":965,"y":1,"w":144,"h":238},
	"rotated": false,
	"trimmed": true,
	"spriteSourceSize": {"x":9,"y":11,"w":144,"h":238},
	"sourceSize": {"w":158,"h":258},
	"pivot": {"x":0.5,"y":0.5}
},
"jump_26.png":
{
	"frame": {"x":1040,"y":241,"w":144,"h":238},
	"rotated": false,
	"trimmed": true,
	"spriteSourceSize": {"x":9,"y":11,"w":144,"h":238},
	"sourceSize": {"w":158,"h":258},
	"pivot": {"x":0.5,"y":0.5}
}},
"meta": {
	"app": "http://www.codeandweb.com/texturepacker",
	"version": "1.0",
	"image": "femaleChar.png",
	"format": "RGBA8888",
	"size": {"w":1401,"h":493},
	"scale": "1",
	"smartupdate": "$TexturePacker:SmartUpdate:0e1a069e9fb020218ab9653e79200cdd:b3460523934b57b1843d84b7a85a7fbe:c9c6e7145dcfc215b0f0c1c2d397a547$"
}
}
