{"frames": {

"backgroundClouds2.jpg":
{
	"frame": {"x":1,"y":1,"w":750,"h":1334},
	"rotated": false,
	"trimmed": false,
	"spriteSourceSize": {"x":0,"y":0,"w":750,"h":1334},
	"sourceSize": {"w":750,"h":1334},
	"pivot": {"x":0.5,"y":0.5}
},
"backgroundClouds3.jpg":
{
	"frame": {"x":753,"y":1,"w":750,"h":1334},
	"rotated": false,
	"trimmed": false,
	"spriteSourceSize": {"x":0,"y":0,"w":750,"h":1334},
	"sourceSize": {"w":750,"h":1334},
	"pivot": {"x":0.5,"y":0.5}
}},
"meta": {
	"app": "http://www.codeandweb.com/texturepacker",
	"version": "1.0",
	"image": "backgroundSky1.png",
	"format": "RGBA8888",
	"size": {"w":1504,"h":1336},
	"scale": "1",
	"smartupdate": "$TexturePacker:SmartUpdate:9f9b5b178dc3cce5bd43a7202a8004a7:6a13cce6be32de714a6835086a0cef7c:5e878a0246b170af8fcaa1f0dc328fad$"
}
}
