{"frames": {

"confirm_button.png":
{
	"frame": {"x":1,"y":760,"w":402,"h":127},
	"rotated": false,
	"trimmed": false,
	"spriteSourceSize": {"x":0,"y":0,"w":402,"h":127},
	"sourceSize": {"w":402,"h":127},
	"pivot": {"x":0.5,"y":0.5}
},
"female_not_selectedNew.png":
{
	"frame": {"x":775,"y":1,"w":256,"h":743},
	"rotated": false,
	"trimmed": true,
	"spriteSourceSize": {"x":0,"y":10,"w":256,"h":743},
	"sourceSize": {"w":256,"h":753},
	"pivot": {"x":0.5,"y":0.5}
},
"female_selectedNew.png":
{
	"frame": {"x":259,"y":1,"w":256,"h":753},
	"rotated": false,
	"trimmed": false,
	"spriteSourceSize": {"x":0,"y":0,"w":256,"h":753},
	"sourceSize": {"w":256,"h":753},
	"pivot": {"x":0.5,"y":0.5}
},
"hud_back.png":
{
	"frame": {"x":405,"y":756,"w":71,"h":71},
	"rotated": false,
	"trimmed": false,
	"spriteSourceSize": {"x":0,"y":0,"w":71,"h":71},
	"sourceSize": {"w":71,"h":71},
	"pivot": {"x":0.5,"y":0.5}
},
"hud_settings.png":
{
	"frame": {"x":478,"y":756,"w":71,"h":71},
	"rotated": false,
	"trimmed": false,
	"spriteSourceSize": {"x":0,"y":0,"w":71,"h":71},
	"sourceSize": {"w":71,"h":71},
	"pivot": {"x":0.5,"y":0.5}
},
"male_not_selectedNew.png":
{
	"frame": {"x":517,"y":1,"w":256,"h":747},
	"rotated": false,
	"trimmed": true,
	"spriteSourceSize": {"x":0,"y":10,"w":256,"h":747},
	"sourceSize": {"w":256,"h":757},
	"pivot": {"x":0.5,"y":0.5}
},
"male_selectedNew.png":
{
	"frame": {"x":1,"y":1,"w":256,"h":757},
	"rotated": false,
	"trimmed": false,
	"spriteSourceSize": {"x":0,"y":0,"w":256,"h":757},
	"sourceSize": {"w":256,"h":757},
	"pivot": {"x":0.5,"y":0.5}
},
"title_selectplayer.png":
{
	"frame": {"x":551,"y":750,"w":449,"h":134},
	"rotated": false,
	"trimmed": false,
	"spriteSourceSize": {"x":0,"y":0,"w":449,"h":134},
	"sourceSize": {"w":449,"h":134},
	"pivot": {"x":0.5,"y":0.5}
}},
"meta": {
	"app": "http://www.codeandweb.com/texturepacker",
	"version": "1.0",
	"image": "characterSelectIcons.png",
	"format": "RGBA8888",
	"size": {"w":1032,"h":888},
	"scale": "1",
	"smartupdate": "$TexturePacker:SmartUpdate:adbd823005e95a83122c18d40dc592c7:31890b31fe43499cded7513c2c07479c:65042730ea386235f584fe25572e13b7$"
}
}
