{"frames": {

"iPadCollectable1.png":
{
	"frame": {"x":133,"y":297,"w":58,"h":77},
	"rotated": false,
	"trimmed": true,
	"spriteSourceSize": {"x":46,"y":37,"w":58,"h":77},
	"sourceSize": {"w":150,"h":150},
	"pivot": {"x":0.5,"y":0.5}
},
"iPadCollectable2.png":
{
	"frame": {"x":71,"y":297,"w":60,"h":81},
	"rotated": false,
	"trimmed": true,
	"spriteSourceSize": {"x":45,"y":35,"w":60,"h":81},
	"sourceSize": {"w":150,"h":150},
	"pivot": {"x":0.5,"y":0.5}
},
"iPadCollectable3.png":
{
	"frame": {"x":1,"y":297,"w":68,"h":93},
	"rotated": false,
	"trimmed": true,
	"spriteSourceSize": {"x":41,"y":29,"w":68,"h":93},
	"sourceSize": {"w":150,"h":150},
	"pivot": {"x":0.5,"y":0.5}
},
"iPadCollectable4.png":
{
	"frame": {"x":289,"y":283,"w":84,"h":97},
	"rotated": false,
	"trimmed": true,
	"spriteSourceSize": {"x":33,"y":27,"w":84,"h":97},
	"sourceSize": {"w":150,"h":150},
	"pivot": {"x":0.5,"y":0.5}
},
"iPadCollectable5.png":
{
	"frame": {"x":305,"y":1,"w":108,"h":108},
	"rotated": false,
	"trimmed": true,
	"spriteSourceSize": {"x":21,"y":21,"w":108,"h":108},
	"sourceSize": {"w":150,"h":150},
	"pivot": {"x":0.5,"y":0.5}
},
"iPadCollectable6.png":
{
	"frame": {"x":289,"y":153,"w":128,"h":128},
	"rotated": false,
	"trimmed": true,
	"spriteSourceSize": {"x":11,"y":11,"w":128,"h":128},
	"sourceSize": {"w":150,"h":150},
	"pivot": {"x":0.5,"y":0.5}
},
"iPadCollectable7.png":
{
	"frame": {"x":1,"y":153,"w":142,"h":142},
	"rotated": false,
	"trimmed": true,
	"spriteSourceSize": {"x":4,"y":4,"w":142,"h":142},
	"sourceSize": {"w":150,"h":150},
	"pivot": {"x":0.5,"y":0.5}
},
"iPadCollectable8.png":
{
	"frame": {"x":153,"y":1,"w":150,"h":150},
	"rotated": false,
	"trimmed": false,
	"spriteSourceSize": {"x":0,"y":0,"w":150,"h":150},
	"sourceSize": {"w":150,"h":150},
	"pivot": {"x":0.5,"y":0.5}
},
"iPadCollectable9.png":
{
	"frame": {"x":145,"y":153,"w":142,"h":142},
	"rotated": false,
	"trimmed": true,
	"spriteSourceSize": {"x":4,"y":4,"w":142,"h":142},
	"sourceSize": {"w":150,"h":150},
	"pivot": {"x":0.5,"y":0.5}
},
"iPadCollectable10.png":
{
	"frame": {"x":1,"y":1,"w":150,"h":150},
	"rotated": false,
	"trimmed": false,
	"spriteSourceSize": {"x":0,"y":0,"w":150,"h":150},
	"sourceSize": {"w":150,"h":150},
	"pivot": {"x":0.5,"y":0.5}
}},
"meta": {
	"app": "http://www.codeandweb.com/texturepacker",
	"version": "1.0",
	"image": "collectables.png",
	"format": "RGBA8888",
	"size": {"w":418,"h":391},
	"scale": "1",
	"smartupdate": "$TexturePacker:SmartUpdate:2bbc97c4194ab6eb3fa03cd68f3b6873:1a94b877f0b473bba84ef825e4d96047:64439ad7695433a6653822afb556729d$"
}
}
