{"frames": {

"htp_panel.png":
{
	"frame": {"x":2,"y":2,"w":387,"h":494},
	"rotated": false,
	"trimmed": false,
	"spriteSourceSize": {"x":0,"y":0,"w":387,"h":494},
	"sourceSize": {"w":387,"h":494},
	"pivot": {"x":0.5,"y":0.5}
},
"letsgo_btn.png":
{
	"frame": {"x":2,"y":498,"w":351,"h":84},
	"rotated": false,
	"trimmed": false,
	"spriteSourceSize": {"x":0,"y":0,"w":351,"h":84},
	"sourceSize": {"w":351,"h":84},
	"pivot": {"x":0.5,"y":0.5}
}},
"meta": {
	"app": "http://www.codeandweb.com/texturepacker",
	"version": "1.0",
	"image": "howtoplay.png",
	"format": "RGBA8888",
	"size": {"w":391,"h":584},
	"scale": "1",
	"smartupdate": "$TexturePacker:SmartUpdate:50304b75cfb7c8ac198c3c241cc0afc9:25deeb484620574f7d3166a1d9f00875:fbc76f254dd1f8ec4eaea365d98305d8$"
}
}
