{"frames": {

"bdisc_1.png":
{
	"frame": {"x":790,"y":415,"w":40,"h":40},
	"rotated": false,
	"trimmed": false,
	"spriteSourceSize": {"x":0,"y":0,"w":40,"h":40},
	"sourceSize": {"w":40,"h":40}
},
"bdisc_2.png":
{
	"frame": {"x":790,"y":373,"w":40,"h":40},
	"rotated": false,
	"trimmed": false,
	"spriteSourceSize": {"x":0,"y":0,"w":40,"h":40},
	"sourceSize": {"w":40,"h":40}
},
"bdisc_3.png":
{
	"frame": {"x":790,"y":331,"w":40,"h":40},
	"rotated": false,
	"trimmed": false,
	"spriteSourceSize": {"x":0,"y":0,"w":40,"h":40},
	"sourceSize": {"w":40,"h":40}
},
"bdisc_4.png":
{
	"frame": {"x":783,"y":955,"w":40,"h":40},
	"rotated": false,
	"trimmed": false,
	"spriteSourceSize": {"x":0,"y":0,"w":40,"h":40},
	"sourceSize": {"w":40,"h":40}
},
"bdisc_5.png":
{
	"frame": {"x":741,"y":955,"w":40,"h":40},
	"rotated": false,
	"trimmed": false,
	"spriteSourceSize": {"x":0,"y":0,"w":40,"h":40},
	"sourceSize": {"w":40,"h":40}
},
"boost_back.png":
{
	"frame": {"x":111,"y":817,"w":107,"h":106},
	"rotated": false,
	"trimmed": false,
	"spriteSourceSize": {"x":0,"y":0,"w":107,"h":106},
	"sourceSize": {"w":107,"h":106}
},
"boost_fill_0.png":
{
	"frame": {"x":111,"y":709,"w":107,"h":106},
	"rotated": false,
	"trimmed": false,
	"spriteSourceSize": {"x":0,"y":0,"w":107,"h":106},
	"sourceSize": {"w":107,"h":106}
},
"boost_fill_10.png":
{
	"frame": {"x":111,"y":601,"w":107,"h":106},
	"rotated": false,
	"trimmed": false,
	"spriteSourceSize": {"x":0,"y":0,"w":107,"h":106},
	"sourceSize": {"w":107,"h":106}
},
"boost_fill_100.png":
{
	"frame": {"x":111,"y":493,"w":107,"h":106},
	"rotated": false,
	"trimmed": false,
	"spriteSourceSize": {"x":0,"y":0,"w":107,"h":106},
	"sourceSize": {"w":107,"h":106}
},
"boost_fill_20.png":
{
	"frame": {"x":2,"y":801,"w":107,"h":106},
	"rotated": false,
	"trimmed": false,
	"spriteSourceSize": {"x":0,"y":0,"w":107,"h":106},
	"sourceSize": {"w":107,"h":106}
},
"boost_fill_30.png":
{
	"frame": {"x":2,"y":693,"w":107,"h":106},
	"rotated": false,
	"trimmed": false,
	"spriteSourceSize": {"x":0,"y":0,"w":107,"h":106},
	"sourceSize": {"w":107,"h":106}
},
"boost_fill_40.png":
{
	"frame": {"x":245,"y":313,"w":107,"h":106},
	"rotated": false,
	"trimmed": false,
	"spriteSourceSize": {"x":0,"y":0,"w":107,"h":106},
	"sourceSize": {"w":107,"h":106}
},
"boost_fill_50.png":
{
	"frame": {"x":2,"y":585,"w":107,"h":106},
	"rotated": false,
	"trimmed": false,
	"spriteSourceSize": {"x":0,"y":0,"w":107,"h":106},
	"sourceSize": {"w":107,"h":106}
},
"boost_fill_60.png":
{
	"frame": {"x":245,"y":205,"w":107,"h":106},
	"rotated": false,
	"trimmed": false,
	"spriteSourceSize": {"x":0,"y":0,"w":107,"h":106},
	"sourceSize": {"w":107,"h":106}
},
"boost_fill_70.png":
{
	"frame": {"x":136,"y":313,"w":107,"h":106},
	"rotated": false,
	"trimmed": false,
	"spriteSourceSize": {"x":0,"y":0,"w":107,"h":106},
	"sourceSize": {"w":107,"h":106}
},
"boost_fill_80.png":
{
	"frame": {"x":2,"y":477,"w":107,"h":106},
	"rotated": false,
	"trimmed": false,
	"spriteSourceSize": {"x":0,"y":0,"w":107,"h":106},
	"sourceSize": {"w":107,"h":106}
},
"boost_fill_90.png":
{
	"frame": {"x":136,"y":205,"w":107,"h":106},
	"rotated": false,
	"trimmed": false,
	"spriteSourceSize": {"x":0,"y":0,"w":107,"h":106},
	"sourceSize": {"w":107,"h":106}
},
"boost_overlay.png":
{
	"frame": {"x":660,"y":2,"w":107,"h":106},
	"rotated": false,
	"trimmed": false,
	"spriteSourceSize": {"x":0,"y":0,"w":107,"h":106},
	"sourceSize": {"w":107,"h":106}
},
"c_anarchy_card_1.png":
{
	"frame": {"x":706,"y":415,"w":82,"h":82},
	"rotated": false,
	"trimmed": false,
	"spriteSourceSize": {"x":0,"y":0,"w":82,"h":82},
	"sourceSize": {"w":82,"h":82}
},
"c_anarchy_card_2.png":
{
	"frame": {"x":706,"y":331,"w":82,"h":82},
	"rotated": false,
	"trimmed": false,
	"spriteSourceSize": {"x":0,"y":0,"w":82,"h":82},
	"sourceSize": {"w":82,"h":82}
},
"c_anarchy_card_3.png":
{
	"frame": {"x":569,"y":930,"w":82,"h":82},
	"rotated": false,
	"trimmed": false,
	"spriteSourceSize": {"x":0,"y":0,"w":82,"h":82},
	"sourceSize": {"w":82,"h":82}
},
"c_anarchy_card_4.png":
{
	"frame": {"x":653,"y":879,"w":82,"h":82},
	"rotated": false,
	"trimmed": false,
	"spriteSourceSize": {"x":0,"y":0,"w":82,"h":82},
	"sourceSize": {"w":82,"h":82}
},
"c_anarchy_card_5.png":
{
	"frame": {"x":653,"y":795,"w":82,"h":82},
	"rotated": false,
	"trimmed": false,
	"spriteSourceSize": {"x":0,"y":0,"w":82,"h":82},
	"sourceSize": {"w":82,"h":82}
},
"c_cassette_card_1.png":
{
	"frame": {"x":569,"y":846,"w":82,"h":82},
	"rotated": false,
	"trimmed": false,
	"spriteSourceSize": {"x":0,"y":0,"w":82,"h":82},
	"sourceSize": {"w":82,"h":82}
},
"c_cassette_card_2.png":
{
	"frame": {"x":649,"y":711,"w":82,"h":82},
	"rotated": false,
	"trimmed": false,
	"spriteSourceSize": {"x":0,"y":0,"w":82,"h":82},
	"sourceSize": {"w":82,"h":82}
},
"c_cassette_card_3.png":
{
	"frame": {"x":649,"y":627,"w":82,"h":82},
	"rotated": false,
	"trimmed": false,
	"spriteSourceSize": {"x":0,"y":0,"w":82,"h":82},
	"sourceSize": {"w":82,"h":82}
},
"c_cassette_card_4.png":
{
	"frame": {"x":649,"y":543,"w":82,"h":82},
	"rotated": false,
	"trimmed": false,
	"spriteSourceSize": {"x":0,"y":0,"w":82,"h":82},
	"sourceSize": {"w":82,"h":82}
},
"c_cassette_card_5.png":
{
	"frame": {"x":565,"y":711,"w":82,"h":82},
	"rotated": false,
	"trimmed": false,
	"spriteSourceSize": {"x":0,"y":0,"w":82,"h":82},
	"sourceSize": {"w":82,"h":82}
},
"c_membership_card_1.png":
{
	"frame": {"x":565,"y":627,"w":82,"h":82},
	"rotated": false,
	"trimmed": false,
	"spriteSourceSize": {"x":0,"y":0,"w":82,"h":82},
	"sourceSize": {"w":82,"h":82}
},
"c_membership_card_2.png":
{
	"frame": {"x":565,"y":543,"w":82,"h":82},
	"rotated": false,
	"trimmed": false,
	"spriteSourceSize": {"x":0,"y":0,"w":82,"h":82},
	"sourceSize": {"w":82,"h":82}
},
"c_membership_card_3.png":
{
	"frame": {"x":485,"y":871,"w":82,"h":82},
	"rotated": false,
	"trimmed": false,
	"spriteSourceSize": {"x":0,"y":0,"w":82,"h":82},
	"sourceSize": {"w":82,"h":82}
},
"c_membership_card_4.png":
{
	"frame": {"x":481,"y":787,"w":82,"h":82},
	"rotated": false,
	"trimmed": false,
	"spriteSourceSize": {"x":0,"y":0,"w":82,"h":82},
	"sourceSize": {"w":82,"h":82}
},
"c_membership_card_5.png":
{
	"frame": {"x":481,"y":703,"w":82,"h":82},
	"rotated": false,
	"trimmed": false,
	"spriteSourceSize": {"x":0,"y":0,"w":82,"h":82},
	"sourceSize": {"w":82,"h":82}
},
"c_nmtb_card_1.png":
{
	"frame": {"x":397,"y":787,"w":82,"h":82},
	"rotated": false,
	"trimmed": false,
	"spriteSourceSize": {"x":0,"y":0,"w":82,"h":82},
	"sourceSize": {"w":82,"h":82}
},
"c_nmtb_card_2.png":
{
	"frame": {"x":481,"y":619,"w":82,"h":82},
	"rotated": false,
	"trimmed": false,
	"spriteSourceSize": {"x":0,"y":0,"w":82,"h":82},
	"sourceSize": {"w":82,"h":82}
},
"c_nmtb_card_3.png":
{
	"frame": {"x":397,"y":703,"w":82,"h":82},
	"rotated": false,
	"trimmed": false,
	"spriteSourceSize": {"x":0,"y":0,"w":82,"h":82},
	"sourceSize": {"w":82,"h":82}
},
"c_nmtb_card_4.png":
{
	"frame": {"x":481,"y":535,"w":82,"h":82},
	"rotated": false,
	"trimmed": false,
	"spriteSourceSize": {"x":0,"y":0,"w":82,"h":82},
	"sourceSize": {"w":82,"h":82}
},
"c_nmtb_card_5.png":
{
	"frame": {"x":397,"y":619,"w":82,"h":82},
	"rotated": false,
	"trimmed": false,
	"spriteSourceSize": {"x":0,"y":0,"w":82,"h":82},
	"sourceSize": {"w":82,"h":82}
},
"c_spray_card_1.png":
{
	"frame": {"x":397,"y":535,"w":82,"h":82},
	"rotated": false,
	"trimmed": false,
	"spriteSourceSize": {"x":0,"y":0,"w":82,"h":82},
	"sourceSize": {"w":82,"h":82}
},
"c_spray_card_2.png":
{
	"frame": {"x":631,"y":119,"w":82,"h":82},
	"rotated": false,
	"trimmed": false,
	"spriteSourceSize": {"x":0,"y":0,"w":82,"h":82},
	"sourceSize": {"w":82,"h":82}
},
"c_spray_card_3.png":
{
	"frame": {"x":348,"y":931,"w":82,"h":82},
	"rotated": false,
	"trimmed": false,
	"spriteSourceSize": {"x":0,"y":0,"w":82,"h":82},
	"sourceSize": {"w":82,"h":82}
},
"c_spray_card_4.png":
{
	"frame": {"x":264,"y":931,"w":82,"h":82},
	"rotated": false,
	"trimmed": false,
	"spriteSourceSize": {"x":0,"y":0,"w":82,"h":82},
	"sourceSize": {"w":82,"h":82}
},
"c_spray_card_5.png":
{
	"frame": {"x":180,"y":931,"w":82,"h":82},
	"rotated": false,
	"trimmed": false,
	"spriteSourceSize": {"x":0,"y":0,"w":82,"h":82},
	"sourceSize": {"w":82,"h":82}
},
"distance_back.png":
{
	"frame": {"x":362,"y":119,"w":139,"h":74},
	"rotated": false,
	"trimmed": false,
	"spriteSourceSize": {"x":0,"y":0,"w":139,"h":74},
	"sourceSize": {"w":139,"h":74}
},
"gdisc_1.png":
{
	"frame": {"x":779,"y":913,"w":40,"h":40},
	"rotated": false,
	"trimmed": false,
	"spriteSourceSize": {"x":0,"y":0,"w":40,"h":40},
	"sourceSize": {"w":40,"h":40}
},
"gdisc_2.png":
{
	"frame": {"x":779,"y":871,"w":40,"h":40},
	"rotated": false,
	"trimmed": false,
	"spriteSourceSize": {"x":0,"y":0,"w":40,"h":40},
	"sourceSize": {"w":40,"h":40}
},
"gdisc_3.png":
{
	"frame": {"x":779,"y":829,"w":40,"h":40},
	"rotated": false,
	"trimmed": false,
	"spriteSourceSize": {"x":0,"y":0,"w":40,"h":40},
	"sourceSize": {"w":40,"h":40}
},
"gdisc_4.png":
{
	"frame": {"x":779,"y":787,"w":40,"h":40},
	"rotated": false,
	"trimmed": false,
	"spriteSourceSize": {"x":0,"y":0,"w":40,"h":40},
	"sourceSize": {"w":40,"h":40}
},
"gdisc_5.png":
{
	"frame": {"x":737,"y":913,"w":40,"h":40},
	"rotated": false,
	"trimmed": false,
	"spriteSourceSize": {"x":0,"y":0,"w":40,"h":40},
	"sourceSize": {"w":40,"h":40}
},
"getready.png":
{
	"frame": {"x":2,"y":119,"w":358,"h":84},
	"rotated": false,
	"trimmed": false,
	"spriteSourceSize": {"x":0,"y":0,"w":358,"h":84},
	"sourceSize": {"w":358,"h":84}
},
"go.png":
{
	"frame": {"x":136,"y":421,"w":128,"h":70},
	"rotated": false,
	"trimmed": false,
	"spriteSourceSize": {"x":0,"y":0,"w":128,"h":70},
	"sourceSize": {"w":128,"h":70}
},
"gostar1_full_10.png":
{
	"frame": {"x":618,"y":458,"w":86,"h":83},
	"rotated": false,
	"trimmed": false,
	"spriteSourceSize": {"x":0,"y":0,"w":86,"h":83},
	"sourceSize": {"w":86,"h":83}
},
"gostar1_full_100.png":
{
	"frame": {"x":530,"y":450,"w":86,"h":83},
	"rotated": false,
	"trimmed": false,
	"spriteSourceSize": {"x":0,"y":0,"w":86,"h":83},
	"sourceSize": {"w":86,"h":83}
},
"gostar1_full_20.png":
{
	"frame": {"x":442,"y":450,"w":86,"h":83},
	"rotated": false,
	"trimmed": false,
	"spriteSourceSize": {"x":0,"y":0,"w":86,"h":83},
	"sourceSize": {"w":86,"h":83}
},
"gostar1_full_30.png":
{
	"frame": {"x":618,"y":373,"w":86,"h":83},
	"rotated": false,
	"trimmed": false,
	"spriteSourceSize": {"x":0,"y":0,"w":86,"h":83},
	"sourceSize": {"w":86,"h":83}
},
"gostar1_full_40.png":
{
	"frame": {"x":618,"y":288,"w":86,"h":83},
	"rotated": false,
	"trimmed": false,
	"spriteSourceSize": {"x":0,"y":0,"w":86,"h":83},
	"sourceSize": {"w":86,"h":83}
},
"gostar1_full_50.png":
{
	"frame": {"x":717,"y":195,"w":86,"h":83},
	"rotated": false,
	"trimmed": false,
	"spriteSourceSize": {"x":0,"y":0,"w":86,"h":83},
	"sourceSize": {"w":86,"h":83}
},
"gostar1_full_60.png":
{
	"frame": {"x":629,"y":203,"w":86,"h":83},
	"rotated": false,
	"trimmed": false,
	"spriteSourceSize": {"x":0,"y":0,"w":86,"h":83},
	"sourceSize": {"w":86,"h":83}
},
"gostar1_full_70.png":
{
	"frame": {"x":530,"y":365,"w":86,"h":83},
	"rotated": false,
	"trimmed": false,
	"spriteSourceSize": {"x":0,"y":0,"w":86,"h":83},
	"sourceSize": {"w":86,"h":83}
},
"gostar1_full_80.png":
{
	"frame": {"x":530,"y":280,"w":86,"h":83},
	"rotated": false,
	"trimmed": false,
	"spriteSourceSize": {"x":0,"y":0,"w":86,"h":83},
	"sourceSize": {"w":86,"h":83}
},
"gostar1_full_90.png":
{
	"frame": {"x":442,"y":365,"w":86,"h":83},
	"rotated": false,
	"trimmed": false,
	"spriteSourceSize": {"x":0,"y":0,"w":86,"h":83},
	"sourceSize": {"w":86,"h":83}
},
"gostar2_full_10.png":
{
	"frame": {"x":442,"y":280,"w":86,"h":83},
	"rotated": false,
	"trimmed": false,
	"spriteSourceSize": {"x":0,"y":0,"w":86,"h":83},
	"sourceSize": {"w":86,"h":83}
},
"gostar2_full_100.png":
{
	"frame": {"x":354,"y":365,"w":86,"h":83},
	"rotated": false,
	"trimmed": false,
	"spriteSourceSize": {"x":0,"y":0,"w":86,"h":83},
	"sourceSize": {"w":86,"h":83}
},
"gostar2_full_20.png":
{
	"frame": {"x":354,"y":280,"w":86,"h":83},
	"rotated": false,
	"trimmed": false,
	"spriteSourceSize": {"x":0,"y":0,"w":86,"h":83},
	"sourceSize": {"w":86,"h":83}
},
"gostar2_full_30.png":
{
	"frame": {"x":715,"y":110,"w":86,"h":83},
	"rotated": false,
	"trimmed": false,
	"spriteSourceSize": {"x":0,"y":0,"w":86,"h":83},
	"sourceSize": {"w":86,"h":83}
},
"gostar2_full_40.png":
{
	"frame": {"x":309,"y":846,"w":86,"h":83},
	"rotated": false,
	"trimmed": false,
	"spriteSourceSize": {"x":0,"y":0,"w":86,"h":83},
	"sourceSize": {"w":86,"h":83}
},
"gostar2_full_50.png":
{
	"frame": {"x":309,"y":761,"w":86,"h":83},
	"rotated": false,
	"trimmed": false,
	"spriteSourceSize": {"x":0,"y":0,"w":86,"h":83},
	"sourceSize": {"w":86,"h":83}
},
"gostar2_full_60.png":
{
	"frame": {"x":309,"y":676,"w":86,"h":83},
	"rotated": false,
	"trimmed": false,
	"spriteSourceSize": {"x":0,"y":0,"w":86,"h":83},
	"sourceSize": {"w":86,"h":83}
},
"gostar2_full_70.png":
{
	"frame": {"x":309,"y":591,"w":86,"h":83},
	"rotated": false,
	"trimmed": false,
	"spriteSourceSize": {"x":0,"y":0,"w":86,"h":83},
	"sourceSize": {"w":86,"h":83}
},
"gostar2_full_80.png":
{
	"frame": {"x":309,"y":506,"w":86,"h":83},
	"rotated": false,
	"trimmed": false,
	"spriteSourceSize": {"x":0,"y":0,"w":86,"h":83},
	"sourceSize": {"w":86,"h":83}
},
"gostar2_full_90.png":
{
	"frame": {"x":266,"y":421,"w":86,"h":83},
	"rotated": false,
	"trimmed": false,
	"spriteSourceSize": {"x":0,"y":0,"w":86,"h":83},
	"sourceSize": {"w":86,"h":83}
},
"gostar3_full_10.png":
{
	"frame": {"x":540,"y":195,"w":87,"h":83},
	"rotated": false,
	"trimmed": false,
	"spriteSourceSize": {"x":0,"y":0,"w":87,"h":83},
	"sourceSize": {"w":87,"h":83}
},
"gostar3_full_100.png":
{
	"frame": {"x":451,"y":195,"w":87,"h":83},
	"rotated": false,
	"trimmed": false,
	"spriteSourceSize": {"x":0,"y":0,"w":87,"h":83},
	"sourceSize": {"w":87,"h":83}
},
"gostar3_full_20.png":
{
	"frame": {"x":362,"y":195,"w":87,"h":83},
	"rotated": false,
	"trimmed": false,
	"spriteSourceSize": {"x":0,"y":0,"w":87,"h":83},
	"sourceSize": {"w":87,"h":83}
},
"gostar3_full_30.png":
{
	"frame": {"x":220,"y":846,"w":87,"h":83},
	"rotated": false,
	"trimmed": false,
	"spriteSourceSize": {"x":0,"y":0,"w":87,"h":83},
	"sourceSize": {"w":87,"h":83}
},
"gostar3_full_40.png":
{
	"frame": {"x":220,"y":761,"w":87,"h":83},
	"rotated": false,
	"trimmed": false,
	"spriteSourceSize": {"x":0,"y":0,"w":87,"h":83},
	"sourceSize": {"w":87,"h":83}
},
"gostar3_full_50.png":
{
	"frame": {"x":220,"y":676,"w":87,"h":83},
	"rotated": false,
	"trimmed": false,
	"spriteSourceSize": {"x":0,"y":0,"w":87,"h":83},
	"sourceSize": {"w":87,"h":83}
},
"gostar3_full_60.png":
{
	"frame": {"x":220,"y":591,"w":87,"h":83},
	"rotated": false,
	"trimmed": false,
	"spriteSourceSize": {"x":0,"y":0,"w":87,"h":83},
	"sourceSize": {"w":87,"h":83}
},
"gostar3_full_70.png":
{
	"frame": {"x":220,"y":506,"w":87,"h":83},
	"rotated": false,
	"trimmed": false,
	"spriteSourceSize": {"x":0,"y":0,"w":87,"h":83},
	"sourceSize": {"w":87,"h":83}
},
"gostar3_full_80.png":
{
	"frame": {"x":91,"y":925,"w":87,"h":83},
	"rotated": false,
	"trimmed": false,
	"spriteSourceSize": {"x":0,"y":0,"w":87,"h":83},
	"sourceSize": {"w":87,"h":83}
},
"gostar3_full_90.png":
{
	"frame": {"x":2,"y":909,"w":87,"h":83},
	"rotated": false,
	"trimmed": false,
	"spriteSourceSize": {"x":0,"y":0,"w":87,"h":83},
	"sourceSize": {"w":87,"h":83}
},
"icons_back.png":
{
	"frame": {"x":503,"y":119,"w":126,"h":74},
	"rotated": false,
	"trimmed": false,
	"spriteSourceSize": {"x":0,"y":0,"w":126,"h":74},
	"sourceSize": {"w":126,"h":74}
},
"jdisc_1.png":
{
	"frame": {"x":737,"y":871,"w":40,"h":40},
	"rotated": false,
	"trimmed": false,
	"spriteSourceSize": {"x":0,"y":0,"w":40,"h":40},
	"sourceSize": {"w":40,"h":40}
},
"jdisc_2.png":
{
	"frame": {"x":737,"y":829,"w":40,"h":40},
	"rotated": false,
	"trimmed": false,
	"spriteSourceSize": {"x":0,"y":0,"w":40,"h":40},
	"sourceSize": {"w":40,"h":40}
},
"jdisc_3.png":
{
	"frame": {"x":737,"y":787,"w":40,"h":40},
	"rotated": false,
	"trimmed": false,
	"spriteSourceSize": {"x":0,"y":0,"w":40,"h":40},
	"sourceSize": {"w":40,"h":40}
},
"jdisc_4.png":
{
	"frame": {"x":775,"y":745,"w":40,"h":40},
	"rotated": false,
	"trimmed": false,
	"spriteSourceSize": {"x":0,"y":0,"w":40,"h":40},
	"sourceSize": {"w":40,"h":40}
},
"jdisc_5.png":
{
	"frame": {"x":775,"y":703,"w":40,"h":40},
	"rotated": false,
	"trimmed": false,
	"spriteSourceSize": {"x":0,"y":0,"w":40,"h":40},
	"sourceSize": {"w":40,"h":40}
},
"mdisc_1.png":
{
	"frame": {"x":733,"y":745,"w":40,"h":40},
	"rotated": false,
	"trimmed": false,
	"spriteSourceSize": {"x":0,"y":0,"w":40,"h":40},
	"sourceSize": {"w":40,"h":40}
},
"mdisc_2.png":
{
	"frame": {"x":733,"y":703,"w":40,"h":40},
	"rotated": false,
	"trimmed": false,
	"spriteSourceSize": {"x":0,"y":0,"w":40,"h":40},
	"sourceSize": {"w":40,"h":40}
},
"mdisc_3.png":
{
	"frame": {"x":520,"y":955,"w":40,"h":40},
	"rotated": false,
	"trimmed": false,
	"spriteSourceSize": {"x":0,"y":0,"w":40,"h":40},
	"sourceSize": {"w":40,"h":40}
},
"mdisc_4.png":
{
	"frame": {"x":706,"y":499,"w":40,"h":40},
	"rotated": false,
	"trimmed": false,
	"spriteSourceSize": {"x":0,"y":0,"w":40,"h":40},
	"sourceSize": {"w":40,"h":40}
},
"mdisc_5.png":
{
	"frame": {"x":769,"y":59,"w":40,"h":40},
	"rotated": false,
	"trimmed": false,
	"spriteSourceSize": {"x":0,"y":0,"w":40,"h":40},
	"sourceSize": {"w":40,"h":40}
},
"mobile_left.png":
{
	"frame": {"x":2,"y":341,"w":132,"h":134},
	"rotated": false,
	"trimmed": false,
	"spriteSourceSize": {"x":0,"y":0,"w":132,"h":134},
	"sourceSize": {"w":132,"h":134}
},
"mobile_right.png":
{
	"frame": {"x":2,"y":205,"w":132,"h":134},
	"rotated": false,
	"trimmed": false,
	"spriteSourceSize": {"x":0,"y":0,"w":132,"h":134},
	"sourceSize": {"w":132,"h":134}
},
"multi_1.png":
{
	"frame": {"x":733,"y":652,"w":86,"h":49},
	"rotated": false,
	"trimmed": false,
	"spriteSourceSize": {"x":0,"y":0,"w":86,"h":49},
	"sourceSize": {"w":86,"h":49}
},
"multi_10.png":
{
	"frame": {"x":733,"y":601,"w":86,"h":49},
	"rotated": false,
	"trimmed": false,
	"spriteSourceSize": {"x":0,"y":0,"w":86,"h":49},
	"sourceSize": {"w":86,"h":49}
},
"multi_2.png":
{
	"frame": {"x":733,"y":550,"w":86,"h":49},
	"rotated": false,
	"trimmed": false,
	"spriteSourceSize": {"x":0,"y":0,"w":86,"h":49},
	"sourceSize": {"w":86,"h":49}
},
"multi_3.png":
{
	"frame": {"x":748,"y":499,"w":86,"h":49},
	"rotated": false,
	"trimmed": false,
	"spriteSourceSize": {"x":0,"y":0,"w":86,"h":49},
	"sourceSize": {"w":86,"h":49}
},
"multi_4.png":
{
	"frame": {"x":432,"y":955,"w":86,"h":49},
	"rotated": false,
	"trimmed": false,
	"spriteSourceSize": {"x":0,"y":0,"w":86,"h":49},
	"sourceSize": {"w":86,"h":49}
},
"multi_5.png":
{
	"frame": {"x":717,"y":280,"w":86,"h":49},
	"rotated": false,
	"trimmed": false,
	"spriteSourceSize": {"x":0,"y":0,"w":86,"h":49},
	"sourceSize": {"w":86,"h":49}
},
"multi_6.png":
{
	"frame": {"x":653,"y":963,"w":86,"h":49},
	"rotated": false,
	"trimmed": false,
	"spriteSourceSize": {"x":0,"y":0,"w":86,"h":49},
	"sourceSize": {"w":86,"h":49}
},
"multi_7.png":
{
	"frame": {"x":565,"y":795,"w":86,"h":49},
	"rotated": false,
	"trimmed": false,
	"spriteSourceSize": {"x":0,"y":0,"w":86,"h":49},
	"sourceSize": {"w":86,"h":49}
},
"multi_8.png":
{
	"frame": {"x":397,"y":871,"w":86,"h":49},
	"rotated": false,
	"trimmed": false,
	"spriteSourceSize": {"x":0,"y":0,"w":86,"h":49},
	"sourceSize": {"w":86,"h":49}
},
"multi_9.png":
{
	"frame": {"x":354,"y":450,"w":86,"h":49},
	"rotated": false,
	"trimmed": false,
	"spriteSourceSize": {"x":0,"y":0,"w":86,"h":49},
	"sourceSize": {"w":86,"h":49}
},
"waypoint_bg.png":
{
	"frame": {"x":2,"y":2,"w":656,"h":115},
	"rotated": false,
	"trimmed": false,
	"spriteSourceSize": {"x":0,"y":0,"w":656,"h":115},
	"sourceSize": {"w":656,"h":115}
},
"wp_star_full.png":
{
	"frame": {"x":769,"y":2,"w":55,"h":55},
	"rotated": false,
	"trimmed": false,
	"spriteSourceSize": {"x":0,"y":0,"w":55,"h":55},
	"sourceSize": {"w":55,"h":55}
}},
"meta": {
	"app": "http://www.codeandweb.com/texturepacker ",
	"version": "1.0",
	"image": "ingame.png?v=2",
	"format": "RGBA8888",
	"size": {"w":836,"h":1015},
	"scale": "1",
	"smartupdate": "$TexturePacker:SmartUpdate:08e95fb5838e00efd248f213adb4920e:9a91c4012a0e4a36e7d3f12d36ba54fe:a0a7aae19725baf1127883d8cc485c4f$"
}
}
