{"frames": {

"game_logo_background.png":
{
	"frame": {"x":753,"y":1,"w":750,"h":1334},
	"rotated": false,
	"trimmed": false,
	"spriteSourceSize": {"x":0,"y":0,"w":750,"h":1334},
	"sourceSize": {"w":750,"h":1334},
	"pivot": {"x":0.5,"y":0.5}
},
"Menus_backgroundstatic.jpg":
{
	"frame": {"x":1,"y":1,"w":750,"h":1334},
	"rotated": false,
	"trimmed": false,
	"spriteSourceSize": {"x":0,"y":0,"w":750,"h":1334},
	"sourceSize": {"w":750,"h":1334},
	"pivot": {"x":0.5,"y":0.5}
}},
"meta": {
	"app": "http://www.codeandweb.com/texturepacker",
	"version": "1.0",
	"image": "mainMenuBackgrounds.png",
	"format": "RGBA8888",
	"size": {"w":1504,"h":1336},
	"scale": "1",
	"smartupdate": "$TexturePacker:SmartUpdate:c19ca77ae5c69f774dca3b7e13dfb2bd:342432a9578e45cd2f8cd04668c765f5:12660c64e02728f7f0467dcd4588dcac$"
}
}
