{"frames": {

"female_deselected.png":
{
	"frame": {"x":426,"y":404,"w":48,"h":60},
	"rotated": false,
	"trimmed": false,
	"spriteSourceSize": {"x":0,"y":0,"w":48,"h":60},
	"sourceSize": {"w":48,"h":60}
},
"female_selected.png":
{
	"frame": {"x":376,"y":404,"w":48,"h":60},
	"rotated": false,
	"trimmed": false,
	"spriteSourceSize": {"x":0,"y":0,"w":48,"h":60},
	"sourceSize": {"w":48,"h":60}
},
"male_deselected.png":
{
	"frame": {"x":426,"y":342,"w":48,"h":60},
	"rotated": false,
	"trimmed": false,
	"spriteSourceSize": {"x":0,"y":0,"w":48,"h":60},
	"sourceSize": {"w":48,"h":60}
},
"male_selected.png":
{
	"frame": {"x":376,"y":342,"w":48,"h":60},
	"rotated": false,
	"trimmed": false,
	"spriteSourceSize": {"x":0,"y":0,"w":48,"h":60},
	"sourceSize": {"w":48,"h":60}
},
"settingspanel.png":
{
	"frame": {"x":2,"y":2,"w":372,"h":507},
	"rotated": false,
	"trimmed": false,
	"spriteSourceSize": {"x":0,"y":0,"w":372,"h":507},
	"sourceSize": {"w":372,"h":507}
},
"sfb_btn.png":
{
	"frame": {"x":376,"y":154,"w":72,"h":74},
	"rotated": false,
	"trimmed": false,
	"spriteSourceSize": {"x":0,"y":0,"w":72,"h":74},
	"sourceSize": {"w":72,"h":74}
},
"sgplus_btn.png":
{
	"frame": {"x":376,"y":78,"w":72,"h":74},
	"rotated": false,
	"trimmed": false,
	"spriteSourceSize": {"x":0,"y":0,"w":72,"h":74},
	"sourceSize": {"w":72,"h":74}
},
"slider_off.png":
{
	"frame": {"x":376,"y":286,"w":52,"h":54},
	"rotated": false,
	"trimmed": false,
	"spriteSourceSize": {"x":0,"y":0,"w":52,"h":54},
	"sourceSize": {"w":52,"h":54}
},
"slider_on.png":
{
	"frame": {"x":376,"y":230,"w":52,"h":54},
	"rotated": false,
	"trimmed": false,
	"spriteSourceSize": {"x":0,"y":0,"w":52,"h":54},
	"sourceSize": {"w":52,"h":54}
},
"stwitter_btn.png":
{
	"frame": {"x":376,"y":2,"w":72,"h":74},
	"rotated": false,
	"trimmed": false,
	"spriteSourceSize": {"x":0,"y":0,"w":72,"h":74},
	"sourceSize": {"w":72,"h":74}
}},
"meta": {
	"app": "http://www.codeandweb.com/texturepacker ",
	"version": "1.0",
	"image": "settings.png",
	"format": "RGBA8888",
	"size": {"w":476,"h":511},
	"scale": "1",
	"smartupdate": "$TexturePacker:SmartUpdate:9ecba4c26a0bb5e7cc73eb2642bc92cc:07dd46ce852351352ab68a1020c25f8b:11bb4e235cf88122be61d52604f9152e$"
}
}
